{
    "href": "https://api.spotify.com/v1/me/tracks?offset=0&limit=20",
    "items": [
        {
            "added_at": "2018-12-05T00:21:38Z",
            "track": {
                "album": {
                    "album_type": "album", 
                    "artists": [{"external_urls": {"spotify": "https://open.spotify.com/artist/6PA6cOkr31WIibRMDZXZkU"}, "href": "https://api.spotify.com/v1/artists/6PA6cOkr31WIibRMDZXZkU", "id": "6PA6cOkr31WIibRMDZXZkU", "name": "Stage Kids", "type": "artist", "uri": "spotify:artist:6PA6cOkr31WIibRMDZXZkU"} ],
                    "available_markets": ["AD", "AE", "AR", "AT", "AU", "BE", "BG", "BH", "BO", "BR", "CA", "CH", "CL", "CO", "CR", "CY", "CZ", "DE", "DK", "DO", "DZ", "EC", "EE", "EG", "ES", "FI", "FR", "GB", "GR", "GT", "HK", "HN", "HU", "ID", "IE", "IL", "IS", "IT", "JO", "JP", "KW", "LB", "LI", "LT", "LU", "LV", "MA", "MC", "MT", "MX", "MY", "NI", "NL", "NO", "NZ", "OM", "PA", "PE", "PH", "PL", "PS", "PT", "PY", "QA", "RO", "SA", "SE", "SG", "SK", "SV", "TH", "TN", "TR", "TW", "US", "UY", "VN", "ZA"],
                    "external_urls": {"spotify": "https://open.spotify.com/album/4ErF4H0GCbYCA4wL9iwBb2"},
                    "href": "https://api.spotify.com/v1/albums/4ErF4H0GCbYCA4wL9iwBb2",
                    "id": "4ErF4H0GCbYCA4wL9iwBb2",
                    "images": [{"height": 640, "url": "https://i.scdn.co/image/9ca11bf0d50ee744362cf56b3cb8db3ff0afb0b2", "width": 640 }, {"height": 300, "url": "https://i.scdn.co/image/be7e455048a6db5564439cf0b94fb4940e7e19a4", "width": 300 }, {"height": 64, "url": "https://i.scdn.co/image/016bf01d134e2d653223e76fafce9c5de39c53a0", "width": 64 } ],
                    "name": "Killer Tofu",
                    "release_date": "2011-10-05",
                    "release_date_precision": "day",
                    "total_tracks": 7,
                    "type": "album",
                    "uri": "spotify:album:4ErF4H0GCbYCA4wL9iwBb2"
                },
                "artists": [{"external_urls": {"spotify": "https://open.spotify.com/artist/6PA6cOkr31WIibRMDZXZkU"}, "href": "https://api.spotify.com/v1/artists/6PA6cOkr31WIibRMDZXZkU", "id": "6PA6cOkr31WIibRMDZXZkU", "name": "Stage Kids", "type": "artist", "uri": "spotify:artist:6PA6cOkr31WIibRMDZXZkU"} ],
                "available_markets": ["AD", "AE", "AR", "AT", "AU", "BE", "BG", "BH", "BO", "BR", "CA", "CH", "CL", "CO", "CR", "CY", "CZ", "DE", "DK", "DO", "DZ", "EC", "EE", "EG", "ES", "FI", "FR", "GB", "GR", "GT", "HK", "HN", "HU", "ID", "IE", "IL", "IS", "IT", "JO", "JP", "KW", "LB", "LI", "LT", "LU", "LV", "MA", "MC", "MT", "MX", "MY", "NI", "NL", "NO", "NZ", "OM", "PA", "PE", "PH", "PL", "PS", "PT", "PY", "QA", "RO", "SA", "SE", "SG", "SK", "SV", "TH", "TN", "TR", "TW", "US", "UY", "VN", "ZA"],
                "disc_number": 1,
                "duration_ms": 233373,
                "explicit": false,
                "external_ids": {"isrc": "TCABB1107966"},
                "external_urls": {"spotify": "https://open.spotify.com/track/70bq0ZJVXu93cvGlluYrXu"},
                "href": "https://api.spotify.com/v1/tracks/70bq0ZJVXu93cvGlluYrXu",
                "id": "70bq0ZJVXu93cvGlluYrXu",
                "is_local": false,
                "name": "Cyniculture",
                "popularity": 34,
                "preview_url": "https://p.scdn.co/mp3-preview/0b856a94c954bd7350c0ee959b295b246b8fff14?cid=5696713ef1d24a008463cda4b287e933",
                "track_number": 1,
                "type": "track",
                "uri": "spotify:track:70bq0ZJVXu93cvGlluYrXu"
            }
        },
        {
            "added_at": "2018-12-01T01:39:22Z",
            "track": {
                "album": {
                    "album_type": "single",
                    "artists": [{"external_urls": {"spotify": "https://open.spotify.com/artist/5dHfLBNU8zoypgKefzEB1c"}, "href": "https://api.spotify.com/v1/artists/5dHfLBNU8zoypgKefzEB1c", "id": "5dHfLBNU8zoypgKefzEB1c", "name": "Pomplamoose", "type": "artist", "uri": "spotify:artist:5dHfLBNU8zoypgKefzEB1c"} ],
                    "available_markets": ["AD", "AE", "AR", "AT", "AU", "BE", "BG", "BH", "BO", "BR", "CA", "CH", "CL", "CO", "CR", "CY", "CZ", "DE", "DK", "DO", "DZ", "EC", "EE", "EG", "ES", "FI", "FR", "GB", "GR", "GT", "HK", "HN", "HU", "ID", "IE", "IL", "IS", "IT", "JO", "JP", "KW", "LB", "LI", "LT", "LU", "LV", "MA", "MC", "MT", "MX", "MY", "NI", "NL", "NO", "NZ", "OM", "PA", "PE", "PH", "PL", "PS", "PT", "PY", "QA", "RO", "SA", "SE", "SG", "SK", "SV", "TH", "TN", "TR", "TW", "US", "UY", "VN", "ZA"],
                    "external_urls": {"spotify": "https://open.spotify.com/album/0fn8n1YxPxVAHRk9Rac5fh"},
                    "href": "https://api.spotify.com/v1/albums/0fn8n1YxPxVAHRk9Rac5fh",
                    "id": "0fn8n1YxPxVAHRk9Rac5fh",
                    "images": [{"height": 640, "url": "https://i.scdn.co/image/eaf2375a002d60830e98f8b1e574e2f7d9558ee4", "width": 640 }, {"height": 300, "url": "https://i.scdn.co/image/1f44b780710f8c527f303d1120a17308e80bcf55", "width": 300 }, {"height": 64, "url": "https://i.scdn.co/image/a5774f1ac1c8acb116f7bd076ac04d6e7e8dfa5d", "width": 64 } ],
                    "name": "Jamirobeegees Mashup: Stayin' Alive / Virtual Insanity",
                    "release_date": "2018-05-25",
                    "release_date_precision": "day",
                    "total_tracks": 1,
                    "type": "album",
                    "uri": "spotify:album:0fn8n1YxPxVAHRk9Rac5fh"
                },
                "artists": [
                    {"external_urls": {"spotify": "https://open.spotify.com/artist/5dHfLBNU8zoypgKefzEB1c"}, "href": "https://api.spotify.com/v1/artists/5dHfLBNU8zoypgKefzEB1c", "id": "5dHfLBNU8zoypgKefzEB1c", "name": "Pomplamoose", "type": "artist", "uri": "spotify:artist:5dHfLBNU8zoypgKefzEB1c"} ],
                "available_markets": ["AD", "AE", "AR", "AT", "AU", "BE", "BG", "BH", "BO", "BR", "CA", "CH", "CL", "CO", "CR", "CY", "CZ", "DE", "DK", "DO", "DZ", "EC", "EE", "EG", "ES", "FI", "FR", "GB", "GR", "GT", "HK", "HN", "HU", "ID", "IE", "IL", "IS", "IT", "JO", "JP", "KW", "LB", "LI", "LT", "LU", "LV", "MA", "MC", "MT", "MX", "MY", "NI", "NL", "NO", "NZ", "OM", "PA", "PE", "PH", "PL", "PS", "PT", "PY", "QA", "RO", "SA", "SE", "SG", "SK", "SV", "TH", "TN", "TR", "TW", "US", "UY", "VN", "ZA"],
                "disc_number": 1,
                "duration_ms": 172975,
                "explicit": false,
                "external_ids": {"isrc": "QZ22B1952125"},
                "external_urls": {"spotify": "https://open.spotify.com/track/5IIbzOldLIzlQw2xRLwdbj"},
                "href": "https://api.spotify.com/v1/tracks/5IIbzOldLIzlQw2xRLwdbj",
                "id": "5IIbzOldLIzlQw2xRLwdbj",
                "is_local": false,
                "name": "Jamirobeegees Mashup: Stayin' Alive / Virtual Insanity",
                "popularity": 46,
                "preview_url": "https://p.scdn.co/mp3-preview/75ff49b581af65ba3caa35ba3893481deb56046a?cid=5696713ef1d24a008463cda4b287e933",
                "track_number": 1,
                "type": "track",
                "uri": "spotify:track:5IIbzOldLIzlQw2xRLwdbj"
            }
        }
    ],
    "limit": 20,
    "next": "https://api.spotify.com/v1/me/tracks?offset=20&limit=20",
    "offset": 0,
    "previous": null,
    "total": 793
}