{
    "categories": {
        "href": "https://api.spotify.com/v1/browse/categories?offset=0&limit=20",
        "items": [
            {
                "href": "https://api.spotify.com/v1/browse/categories/toplists",
                "icons": [
                    {
                        "height": 275,
                        "url": "https://t.scdn.co/media/derived/toplists_11160599e6a04ac5d6f2757f5511778f_0_0_275_275.jpg",
                        "width": 275
                    }
                ],
                "id": "toplists",
                "name": "Top Lists"
            },
            {
                "href": "https://api.spotify.com/v1/browse/categories/holidays",
                "icons": [
                    {
                        "height": null,
                        "url": "https://t.scdn.co/images/c7f7fca5b5aa47e5941b701b1c7a66c8.jpeg",
                        "width": null
                    }
                ],
                "id": "holidays",
                "name": "Happy Holidays"
            }
        ],
        "limit": 20,
        "next": "https://api.spotify.com/v1/browse/categories?offset=20&limit=20",
        "offset": 0,
        "previous": null,
        "total": 44
    }
}