{
    "artists": {
        "items": [
            {
                "external_urls": {
                    "spotify": "https://open.spotify.com/artist/04gDigrS5kc9YWfZHwBETP"
                },
                "followers": {
                    "href": null,
                    "total": 14872051
                },
                "genres": [
                    "pop"
                ],
                "href": "https://api.spotify.com/v1/artists/04gDigrS5kc9YWfZHwBETP",
                "id": "04gDigrS5kc9YWfZHwBETP",
                "images": [
                    {
                        "height": 640,
                        "url": "https://i.scdn.co/image/4079ef5effe54ab8cc099e2b6d872899d033b09d",
                        "width": 640
                    },
                    {
                        "height": 320,
                        "url": "https://i.scdn.co/image/a6b50b62941f169aea7a48039a509f643c8c69e3",
                        "width": 320
                    },
                    {
                        "height": 160,
                        "url": "https://i.scdn.co/image/34760086fe6f4e6f8121fe00aa4901ace216b268",
                        "width": 160
                    }
                ],
                "name": "Maroon 5",
                "popularity": 90,
                "type": "artist",
                "uri": "spotify:artist:04gDigrS5kc9YWfZHwBETP"
            },
            {
                "external_urls": {
                    "spotify": "https://open.spotify.com/artist/08WRjJPbPqSEOkFuc99ymW"
                },
                "followers": {
                    "href": null,
                    "total": 52460
                },
                "genres": [
                    "classify",
                    "otacore",
                    "scorecore"
                ],
                "href": "https://api.spotify.com/v1/artists/08WRjJPbPqSEOkFuc99ymW",
                "id": "08WRjJPbPqSEOkFuc99ymW",
                "images": [
                    {
                        "height": 640,
                        "url": "https://i.scdn.co/image/efafbb3b953b11bd5737cd77570c1cdb4dbe45ba",
                        "width": 640
                    },
                    {
                        "height": 320,
                        "url": "https://i.scdn.co/image/04088cb421193e0eca208f948f39e8f4842f5753",
                        "width": 320
                    },
                    {
                        "height": 160,
                        "url": "https://i.scdn.co/image/8487644aabb757593e284fe552b7c5a563b1808a",
                        "width": 160
                    }
                ],
                "name": "Eddie van der Meer",
                "popularity": 53,
                "type": "artist",
                "uri": "spotify:artist:08WRjJPbPqSEOkFuc99ymW"
            }
        ],
        "next": "https://api.spotify.com/v1/me/following?type=artist&after=3B9O5mYYw89fFXkwKh7jCS&limit=20",
        "total": 66,
        "cursors": {
            "after": "3B9O5mYYw89fFXkwKh7jCS"
        },
        "limit": 20,
        "href": "https://api.spotify.com/v1/me/following?type=artist&limit=20"
    }
}