{
    "href": "https://api.spotify.com/v1/me/tracks?offset=0&limit=20",
    "items": [
        {
            "added_at": "2018-12-18T11:51:11Z",
            "track": {
                "album": {
                    "album_type": "album",
                    "artists": [
                        {
                            "external_urls": {
                                "spotify": "https://open.spotify.com/artist/05MlomiA9La0OiNIAGqECk"
                            },
                            "href": "https://api.spotify.com/v1/artists/05MlomiA9La0OiNIAGqECk",
                            "id": "05MlomiA9La0OiNIAGqECk",
                            "name": "Delta Sleep",
                            "type": "artist",
                            "uri": "spotify:artist:05MlomiA9La0OiNIAGqECk"
                        }
                    ],
                    "available_markets": [
                        "AD",
                        "AE",
                        "AR",
                        "AT",
                        "AU",
                        "BE",
                        "BG",
                        "BH",
                        "BO",
                        "BR",
                        "CA",
                        "CH",
                        "CL",
                        "CO",
                        "CR",
                        "CY",
                        "CZ",
                        "DE",
                        "DK",
                        "DO",
                        "DZ",
                        "EC",
                        "EE",
                        "EG",
                        "ES",
                        "FI",
                        "FR",
                        "GB",
                        "GR",
                        "GT",
                        "HK",
                        "HN",
                        "HU",
                        "ID",
                        "IE",
                        "IL",
                        "IS",
                        "IT",
                        "JO",
                        "JP",
                        "KW",
                        "LB",
                        "LI",
                        "LT",
                        "LU",
                        "LV",
                        "MA",
                        "MC",
                        "MT",
                        "MX",
                        "MY",
                        "NI",
                        "NL",
                        "NO",
                        "NZ",
                        "OM",
                        "PA",
                        "PE",
                        "PH",
                        "PL",
                        "PS",
                        "PT",
                        "PY",
                        "QA",
                        "RO",
                        "SA",
                        "SE",
                        "SG",
                        "SK",
                        "SV",
                        "TH",
                        "TN",
                        "TR",
                        "TW",
                        "US",
                        "UY",
                        "VN",
                        "ZA"
                    ],
                    "external_urls": {
                        "spotify": "https://open.spotify.com/album/4VsIC2EXBQWIs3jfc2va1f"
                    },
                    "href": "https://api.spotify.com/v1/albums/4VsIC2EXBQWIs3jfc2va1f",
                    "id": "4VsIC2EXBQWIs3jfc2va1f",
                    "images": [
                        {
                            "height": 640,
                            "url": "https://i.scdn.co/image/be2d40fad4e9edcd58b5f0821e03c0cb2af8859e",
                            "width": 640
                        },
                        {
                            "height": 300,
                            "url": "https://i.scdn.co/image/3caa5c33cda839279ff6a8df3d0a2bed0f1511b9",
                            "width": 300
                        },
                        {
                            "height": 64,
                            "url": "https://i.scdn.co/image/805994b9fedf2a1cc870e3e737f25dc436e66022",
                            "width": 64
                        }
                    ],
                    "name": "Management",
                    "release_date": "2013-04-01",
                    "release_date_precision": "day",
                    "total_tracks": 7,
                    "type": "album",
                    "uri": "spotify:album:4VsIC2EXBQWIs3jfc2va1f"
                },
                "artists": [
                    {
                        "external_urls": {
                            "spotify": "https://open.spotify.com/artist/05MlomiA9La0OiNIAGqECk"
                        },
                        "href": "https://api.spotify.com/v1/artists/05MlomiA9La0OiNIAGqECk",
                        "id": "05MlomiA9La0OiNIAGqECk",
                        "name": "Delta Sleep",
                        "type": "artist",
                        "uri": "spotify:artist:05MlomiA9La0OiNIAGqECk"
                    }
                ],
                "available_markets": [
                    "AD",
                    "AE",
                    "AR",
                    "AT",
                    "AU",
                    "BE",
                    "BG",
                    "BH",
                    "BO",
                    "BR",
                    "CA",
                    "CH",
                    "CL",
                    "CO",
                    "CR",
                    "CY",
                    "CZ",
                    "DE",
                    "DK",
                    "DO",
                    "DZ",
                    "EC",
                    "EE",
                    "EG",
                    "ES",
                    "FI",
                    "FR",
                    "GB",
                    "GR",
                    "GT",
                    "HK",
                    "HN",
                    "HU",
                    "ID",
                    "IE",
                    "IL",
                    "IS",
                    "IT",
                    "JO",
                    "JP",
                    "KW",
                    "LB",
                    "LI",
                    "LT",
                    "LU",
                    "LV",
                    "MA",
                    "MC",
                    "MT",
                    "MX",
                    "MY",
                    "NI",
                    "NL",
                    "NO",
                    "NZ",
                    "OM",
                    "PA",
                    "PE",
                    "PH",
                    "PL",
                    "PS",
                    "PT",
                    "PY",
                    "QA",
                    "RO",
                    "SA",
                    "SE",
                    "SG",
                    "SK",
                    "SV",
                    "TH",
                    "TN",
                    "TR",
                    "TW",
                    "US",
                    "UY",
                    "VN",
                    "ZA"
                ],
                "disc_number": 1,
                "duration_ms": 225253,
                "explicit": false,
                "external_ids": {
                    "isrc": "QM7281646451"
                },
                "external_urls": {
                    "spotify": "https://open.spotify.com/track/1WvIkhx5AxsA4N9TgkYSQG"
                },
                "href": "https://api.spotify.com/v1/tracks/1WvIkhx5AxsA4N9TgkYSQG",
                "id": "1WvIkhx5AxsA4N9TgkYSQG",
                "is_local": false,
                "name": "Jesus Bill!",
                "popularity": 27,
                "preview_url": "https://p.scdn.co/mp3-preview/bdad35f5eda187b44bae4ed0b6e8bf2f2884a78e?cid=5696713ef1d24a008463cda4b287e933",
                "track_number": 3,
                "type": "track",
                "uri": "spotify:track:1WvIkhx5AxsA4N9TgkYSQG"
            }
        },
        {
            "added_at": "2018-12-05T00:21:38Z",
            "track": {
                "album": {
                    "album_type": "album",
                    "artists": [
                        {
                            "external_urls": {
                                "spotify": "https://open.spotify.com/artist/6PA6cOkr31WIibRMDZXZkU"
                            },
                            "href": "https://api.spotify.com/v1/artists/6PA6cOkr31WIibRMDZXZkU",
                            "id": "6PA6cOkr31WIibRMDZXZkU",
                            "name": "Stage Kids",
                            "type": "artist",
                            "uri": "spotify:artist:6PA6cOkr31WIibRMDZXZkU"
                        }
                    ],
                    "available_markets": [
                        "AD",
                        "AE",
                        "AR",
                        "AT",
                        "AU",
                        "BE",
                        "BG",
                        "BH",
                        "BO",
                        "BR",
                        "CA",
                        "CH",
                        "CL",
                        "CO",
                        "CR",
                        "CY",
                        "CZ",
                        "DE",
                        "DK",
                        "DO",
                        "DZ",
                        "EC",
                        "EE",
                        "EG",
                        "ES",
                        "FI",
                        "FR",
                        "GB",
                        "GR",
                        "GT",
                        "HK",
                        "HN",
                        "HU",
                        "ID",
                        "IE",
                        "IL",
                        "IS",
                        "IT",
                        "JO",
                        "JP",
                        "KW",
                        "LB",
                        "LI",
                        "LT",
                        "LU",
                        "LV",
                        "MA",
                        "MC",
                        "MT",
                        "MX",
                        "MY",
                        "NI",
                        "NL",
                        "NO",
                        "NZ",
                        "OM",
                        "PA",
                        "PE",
                        "PH",
                        "PL",
                        "PS",
                        "PT",
                        "PY",
                        "QA",
                        "RO",
                        "SA",
                        "SE",
                        "SG",
                        "SK",
                        "SV",
                        "TH",
                        "TN",
                        "TR",
                        "TW",
                        "US",
                        "UY",
                        "VN",
                        "ZA"
                    ],
                    "external_urls": {
                        "spotify": "https://open.spotify.com/album/4ErF4H0GCbYCA4wL9iwBb2"
                    },
                    "href": "https://api.spotify.com/v1/albums/4ErF4H0GCbYCA4wL9iwBb2",
                    "id": "4ErF4H0GCbYCA4wL9iwBb2",
                    "images": [
                        {
                            "height": 640,
                            "url": "https://i.scdn.co/image/9ca11bf0d50ee744362cf56b3cb8db3ff0afb0b2",
                            "width": 640
                        },
                        {
                            "height": 300,
                            "url": "https://i.scdn.co/image/be7e455048a6db5564439cf0b94fb4940e7e19a4",
                            "width": 300
                        },
                        {
                            "height": 64,
                            "url": "https://i.scdn.co/image/016bf01d134e2d653223e76fafce9c5de39c53a0",
                            "width": 64
                        }
                    ],
                    "name": "Killer Tofu",
                    "release_date": "2011-10-05",
                    "release_date_precision": "day",
                    "total_tracks": 7,
                    "type": "album",
                    "uri": "spotify:album:4ErF4H0GCbYCA4wL9iwBb2"
                },
                "artists": [
                    {
                        "external_urls": {
                            "spotify": "https://open.spotify.com/artist/6PA6cOkr31WIibRMDZXZkU"
                        },
                        "href": "https://api.spotify.com/v1/artists/6PA6cOkr31WIibRMDZXZkU",
                        "id": "6PA6cOkr31WIibRMDZXZkU",
                        "name": "Stage Kids",
                        "type": "artist",
                        "uri": "spotify:artist:6PA6cOkr31WIibRMDZXZkU"
                    }
                ],
                "available_markets": [
                    "AD",
                    "AE",
                    "AR",
                    "AT",
                    "AU",
                    "BE",
                    "BG",
                    "BH",
                    "BO",
                    "BR",
                    "CA",
                    "CH",
                    "CL",
                    "CO",
                    "CR",
                    "CY",
                    "CZ",
                    "DE",
                    "DK",
                    "DO",
                    "DZ",
                    "EC",
                    "EE",
                    "EG",
                    "ES",
                    "FI",
                    "FR",
                    "GB",
                    "GR",
                    "GT",
                    "HK",
                    "HN",
                    "HU",
                    "ID",
                    "IE",
                    "IL",
                    "IS",
                    "IT",
                    "JO",
                    "JP",
                    "KW",
                    "LB",
                    "LI",
                    "LT",
                    "LU",
                    "LV",
                    "MA",
                    "MC",
                    "MT",
                    "MX",
                    "MY",
                    "NI",
                    "NL",
                    "NO",
                    "NZ",
                    "OM",
                    "PA",
                    "PE",
                    "PH",
                    "PL",
                    "PS",
                    "PT",
                    "PY",
                    "QA",
                    "RO",
                    "SA",
                    "SE",
                    "SG",
                    "SK",
                    "SV",
                    "TH",
                    "TN",
                    "TR",
                    "TW",
                    "US",
                    "UY",
                    "VN",
                    "ZA"
                ],
                "disc_number": 1,
                "duration_ms": 233373,
                "explicit": false,
                "external_ids": {
                    "isrc": "TCABB1107966"
                },
                "external_urls": {
                    "spotify": "https://open.spotify.com/track/70bq0ZJVXu93cvGlluYrXu"
                },
                "href": "https://api.spotify.com/v1/tracks/70bq0ZJVXu93cvGlluYrXu",
                "id": "70bq0ZJVXu93cvGlluYrXu",
                "is_local": false,
                "name": "Cyniculture",
                "popularity": 34,
                "preview_url": "https://p.scdn.co/mp3-preview/0b856a94c954bd7350c0ee959b295b246b8fff14?cid=5696713ef1d24a008463cda4b287e933",
                "track_number": 1,
                "type": "track",
                "uri": "spotify:track:70bq0ZJVXu93cvGlluYrXu"
            }
        }
    ],
    "limit": 20,
    "next": "https://api.spotify.com/v1/me/tracks?offset=20&limit=20",
    "offset": 0,
    "previous": null,
    "total": 794
}